%!PS-Adobe-2.0 EPSF-2.0
%%BoundingBox:  0 0 567 449
%%Title: figs/loss_data1percent_sigBack.eps: BPRE
%%Creator: ROOT Version 6.28/06
%%CreationDate: Tue Dec 12 11:39:49 2023
%%EndComments
%%BeginProlog
80 dict begin
/s {stroke} def /l {lineto} def /m {moveto} def /t {translate} def
/r {rotate} def /rl {roll}  def /R {repeat} def
/d {rlineto} def /rm {rmoveto} def /gr {grestore} def /f {eofill} def
/c {setrgbcolor} def /black {0 setgray} def /sd {setdash} def
/cl {closepath} def /sf {scalefont setfont} def /lw {setlinewidth} def
/box {m dup 0 exch d exch 0 d 0 exch neg d cl} def
/NC{systemdict begin initclip end}def/C{NC box clip newpath}def
/bl {box s} def /bf {gsave box gsave f grestore 1 lw [] 0 sd s grestore} def /Y { 0 exch d} def /X { 0 d} def 
/K {{pop pop 0 moveto} exch kshow} bind def
/ita {/ang 15 def gsave [1 0 ang dup sin exch cos div 1 0 0] concat} def 
/mp {newpath /y exch def /x exch def} def
/side {[w .77 mul w .23 mul] .385 w mul sd w 0 l currentpoint t -144 r} def
/mr {mp x y w2 0 360 arc} def /m24 {mr s} def /m20 {mr f} def
/mb {mp x y w2 add m w2 neg 0 d 0 w neg d w 0 d 0 w d cl} def
/mt {mp x y w2 add m w2 neg w neg d w 0 d cl} def
/w4 {w 4 div} def
/w6 {w 6 div} def
/w8 {w 8 div} def
/m21 {mb f} def /m25 {mb s} def /m22 {mt f} def /m26{mt s} def
/m23 {mp x y w2 sub m w2 w d w neg 0 d cl f} def
/m27 {mp x y w2 add m w3 neg w2 neg d w3 w2 neg d w3 w2 d cl s} def
/m28 {mp x w2 sub y w2 sub w3 add m w3 0 d  0 w3 neg d w3 0 d 0 w3 d w3 0 d  0 w3 d w3 neg 0 d 0 w3 d w3 neg 0 d 0 w3 neg d w3 neg 0 d cl s } def
/m29 {mp gsave x w2 sub y w2 add w3 sub m currentpoint t 4 {side} repeat cl fill gr} def
/m30 {mp gsave x w2 sub y w2 add w3 sub m currentpoint t 4 {side} repeat cl s gr} def
/m31 {mp x y w2 sub m 0 w d x w2 sub y m w 0 d x w2 .707 mul sub y w2 .707 mul add m w 1.44 div w 1.44 div neg d x w2 .707 mul sub y w2 .707 mul sub m w 1.44 div w 1.44 div d s} def
/m32 {mp x y w2 sub m w2 w d w neg 0 d cl s} def
/m33 {mp x y w2 add m w3 neg w2 neg d w3 w2 neg d w3 w2 d cl f} def
/m34 {mp x w2 sub y w2 sub w3 add m w3 0 d  0 w3 neg d w3 0 d 0 w3 d w3 0 d  0 w3 d w3 neg 0 d 0 w3 d w3 neg 0 d 0 w3 neg d w3 neg 0 d cl f } def
/m35 {mp x y w2 add m w2 neg w2 neg d w2 w2 neg d w2 w2 d w2 neg w2 d x y w2 sub m 0 w d x w2 sub y m w 0 d s} def
/m36 {mb x w2 sub y w2 add m w w neg d x w2 sub y w2 sub m w w d s} def
/m37 {mp x y m w4 neg w2 d w4 neg w2 neg d w2 0 d  w4 neg w2 neg d w2 0 d w4 neg w2 d w2 0 d w4 neg w2 d w4 neg w2 neg d cl s} def
/m38 {mp x w4 sub y w2 add m w4 neg w4 neg d 0 w2 neg d w4 w4 neg d w2 0 d w4 w4 d 0 w2 d w4 neg w4 d w2 neg 0 d x y w2 sub m 0 w d x w2 sub y m w 0 d cl s} def
/m39 {mp x y m w4 neg w2 d w4 neg w2 neg d w2 0 d  w4 neg w2 neg d w2 0 d w4 neg w2 d w2 0 d w4 neg w2 d w4 neg w2 neg d cl f} def
/m40 {mp x y m w4 w2 d w4 w4 neg d w2 neg w4 neg d w2 w4 neg d w4 neg w4 neg d w4 neg w2 d w4 neg w2 neg d w4 neg w4 d w2 w4 d w2 neg w4 d w4 w4 d w4 w2 neg d cl s} def
/m41 {mp x y m w4 w2 d w4 w4 neg d w2 neg w4 neg d w2 w4 neg d w4 neg w4 neg d w4 neg w2 d w4 neg w2 neg d w4 neg w4 d w2 w4 d w2 neg w4 d w4 w4 d w4 w2 neg d cl f} def
/m42 {mp x y w2 add m w8 neg w2 -3 4 div mul d w2 -3 4 div mul w8 neg d w2 3 4 div mul w8 neg d w8 w2 -3 4 div mul d w8 w2 3 4 div mul d w2 3 4 div mul w8 d w2 -3 4 div mul w8 d w8 neg w2 3 4 div mul d cl s} def
/m43 {mp x y w2 add m w8 neg w2 -3 4 div mul d w2 -3 4 div mul w8 neg d w2 3 4 div mul w8 neg d w8 w2 -3 4 div mul d w8 w2 3 4 div mul d w2 3 4 div mul w8 d w2 -3 4 div mul w8 d w8 neg w2 3 4 div mul d cl f} def
/m44 {mp x y m w6 neg w2 d w2 2 3 div mul 0 d w6 neg w2 neg d w2 w6 d 0 w2 -2 3 div mul d w2 neg w6 d w6 w2 neg d w2 -2 3 div mul 0 d w6 w2 d w2 neg w6 neg d 0 w2 2 3 div mul d w2 w6 neg d cl s} def
/m45 {mp x y m w6 neg w2 d w2 2 3 div mul 0 d w6 neg w2 neg d w2 w6 d 0 w2 -2 3 div mul d w2 neg w6 d w6 w2 neg d w2 -2 3 div mul 0 d w6 w2 d w2 neg w6 neg d 0 w2 2 3 div mul d w2 w6 neg d cl f} def
/m46 {mp x y w4 add m w4 neg w4 d w4 neg w4 neg d  w4 w4 neg d w4 neg w4 neg d w4 w4 neg d w4 w4 d w4 w4 neg d w4 w4 d w4 neg w4 d w4 w4 d w4 neg w4 d w4 neg w4 neg d cl s} def
/m47 {mp x y w4 add m w4 neg w4 d w4 neg w4 neg d w4 w4 neg d w4 neg w4 neg d  w4 w4 neg d w4 w4 d w4 w4 neg d w4 w4 d w4 neg w4 d w4 w4 d w4 neg w4 d w4 neg w4 neg d cl f} def
/m48 {mp x y w4 add m w4 neg w4 d w4 neg w4 neg d w4 w4 neg d  w4 neg w4 neg d w4 w4 neg d w4 w4 d w4 w4 neg d w4 w4 d w4 neg w4 d w4 w4 d w4 neg w4 d w4 neg w4 neg d  w4 w4 neg d w4 neg w4 neg d w4 neg w4 d w4 w4 d cl f} def
/m49 {mp x w2 sub w3 add y w2 sub w3 add m  0 w3 neg d w3 0 d 0 w3 d w3 0 d 0 w3 d w3 neg 0 d 0 w3 d w3 neg 0 d 0 w3 neg d w3 neg 0 d 0 w3 neg d w3 0 d 0 w3 d w3 0 d 0 w3 neg d w3 neg 0 d cl f } def
/m2 {mp x y w2 sub m 0 w d x w2 sub y m w 0 d s} def
/m5 {mp x w2 .707 mul sub y w2 .707 mul sub m w 1.44 div w 1.44 div d x w2 .707 mul sub y w2 .707 mul add m w 1.44 div w 1.44 div neg d s} def
/reEncode {exch findfont dup length dict begin {1 index /FID eq  {pop pop} {def} ifelse } forall /Encoding exch def currentdict end dup /FontName get exch definefont pop } def [/Times-Bold /Times-Italic /Times-BoldItalic /Helvetica /Helvetica-Oblique
 /Helvetica-Bold /Helvetica-BoldOblique /Courier /Courier-Oblique /Courier-Bold /Courier-BoldOblique /Times-Roman /AvantGarde-Book /AvantGarde-BookOblique /AvantGarde-Demi /AvantGarde-DemiOblique /Bookman-Demi /Bookman-DemiItalic /Bookman-Light
 /Bookman-LightItalic /Helvetica-Narrow /Helvetica-Narrow-Bold /Helvetica-Narrow-BoldOblique /Helvetica-Narrow-Oblique /NewCenturySchlbk-Roman /NewCenturySchlbk-Bold /NewCenturySchlbk-BoldItalic /NewCenturySchlbk-Italic /Palatino-Bold
 /Palatino-BoldItalic /Palatino-Italic /Palatino-Roman ] {ISOLatin1Encoding reEncode } forall
%%EndProlog
%%BeginSetup
%%EndSetup
newpath  gsave  .25 .25 scale  gsave  0 0 t black[  ] 0 sd 3 lw 1 1 1 c 2268 1796 0 0 bf black 1 1 1 c 2268 1796 0 0 bf black 1 1 1 c 1905 1544 317 216 bf black 1905 1544 317 216 bl 317 216 m 1905 X s 423 261 m -45 Y s 466 238 m -22 Y s 508 238 m -22
 Y s 550 238 m -22 Y s 593 238 m -22 Y s 635 261 m -45 Y s 677 238 m -22 Y s 720 238 m -22 Y s 762 238 m -22 Y s 804 238 m -22 Y s 847 261 m -45 Y s 889 238 m -22 Y s 931 238 m -22 Y s 974 238 m -22 Y s 1016 238 m -22 Y s 1058 261 m -45 Y s 1101 238
 m -22 Y s 1143 238 m -22 Y s 1185 238 m -22 Y s 1228 238 m -22 Y s 1270 261 m -45 Y s 1312 238 m -22 Y s 1355 238 m -22 Y s 1397 238 m -22 Y s 1439 238 m -22 Y s 1482 261 m -45 Y s 1524 238 m -22 Y s 1566 238 m -22 Y s 1609 238 m -22 Y s 1651 238 m
 -22 Y s 1693 261 m -45 Y s 1736 238 m -22 Y s 1778 238 m -22 Y s 1820 238 m -22 Y s 1863 238 m -22 Y s 1905 261 m -45 Y s 1947 238 m -22 Y s 1990 238 m -22 Y s 2032 238 m -22 Y s 2074 238 m -22 Y s 2117 261 m -45 Y s 423 261 m -45 Y s 381 238 m -22
 Y s 339 238 m -22 Y s 2117 261 m -45 Y s 2159 238 m -22 Y s 2201 238 m -22 Y s
 gsave  2268 1796 0 0 C 403.319 136.976 t 0 r /Helvetica findfont 83.7077 sf 0 0 m (11) show NC gr 
 gsave  2268 1796 0 0 C 361.465 136.976 t 0 r /Symbol findfont 83.7077 sf 0 0 m (-) show NC gr 
 gsave  2268 1796 0 0 C 604.978 136.976 t 0 r /Helvetica findfont 83.7077 sf 0 0 m (10) show NC gr 
 gsave  2268 1796 0 0 C 563.124 136.976 t 0 r /Symbol findfont 83.7077 sf 0 0 m (-) show NC gr 
 gsave  2268 1796 0 0 C 840.881 136.976 t 0 r /Helvetica findfont 83.7077 sf 0 0 m (9) show NC gr 
 gsave  2268 1796 0 0 C 799.028 136.976 t 0 r /Symbol findfont 83.7077 sf 0 0 m (-) show NC gr 
 gsave  2268 1796 0 0 C 1053.96 136.976 t 0 r /Helvetica findfont 83.7077 sf 0 0 m (8) show NC gr 
 gsave  2268 1796 0 0 C 1012.1 136.976 t 0 r /Symbol findfont 83.7077 sf 0 0 m (-) show NC gr 
 gsave  2268 1796 0 0 C 1263.22 136.976 t 0 r /Helvetica findfont 83.7077 sf 0 0 m (7) show NC gr 
 gsave  2268 1796 0 0 C 1221.37 136.976 t 0 r /Symbol findfont 83.7077 sf 0 0 m (-) show NC gr 
 gsave  2268 1796 0 0 C 1476.3 136.976 t 0 r /Helvetica findfont 83.7077 sf 0 0 m (6) show NC gr 
 gsave  2268 1796 0 0 C 1434.44 136.976 t 0 r /Symbol findfont 83.7077 sf 0 0 m (-) show NC gr 
 gsave  2268 1796 0 0 C 1689.37 136.976 t 0 r /Helvetica findfont 83.7077 sf 0 0 m (5) show NC gr 
 gsave  2268 1796 0 0 C 1647.52 136.976 t 0 r /Symbol findfont 83.7077 sf 0 0 m (-) show NC gr 
 gsave  2268 1796 0 0 C 1898.64 136.976 t 0 r /Helvetica findfont 83.7077 sf 0 0 m (4) show NC gr 
 gsave  2268 1796 0 0 C 1856.79 136.976 t 0 r /Symbol findfont 83.7077 sf 0 0 m (-) show NC gr 
 gsave  2268 1796 0 0 C 2111.72 136.976 t 0 r /Helvetica findfont 83.7077 sf 0 0 m (3) show NC gr 
 gsave  2268 1796 0 0 C 2069.86 136.976 t 0 r /Symbol findfont 83.7077 sf 0 0 m (-) show NC gr  317 1760 m 1905 X s 423 1715 m 45 Y s 466 1737 m 23 Y s 508 1737 m 23 Y s 550 1737 m 23 Y s 593 1737 m 23 Y s 635 1715 m 45 Y s 677 1737 m 23 Y s 720 1737
 m 23 Y s 762 1737 m 23 Y s 804 1737 m 23 Y s 847 1715 m 45 Y s 889 1737 m 23 Y s 931 1737 m 23 Y s 974 1737 m 23 Y s 1016 1737 m 23 Y s 1058 1715 m 45 Y s 1101 1737 m 23 Y s 1143 1737 m 23 Y s 1185 1737 m 23 Y s 1228 1737 m 23 Y s 1270 1715 m 45 Y s
 1312 1737 m 23 Y s 1355 1737 m 23 Y s 1397 1737 m 23 Y s 1439 1737 m 23 Y s 1482 1715 m 45 Y s 1524 1737 m 23 Y s 1566 1737 m 23 Y s 1609 1737 m 23 Y s 1651 1737 m 23 Y s 1693 1715 m 45 Y s 1736 1737 m 23 Y s 1778 1737 m 23 Y s 1820 1737 m 23 Y s
 1863 1737 m 23 Y s 1905 1715 m 45 Y s 1947 1737 m 23 Y s 1990 1737 m 23 Y s 2032 1737 m 23 Y s 2074 1737 m 23 Y s 2117 1715 m 45 Y s 423 1715 m 45 Y s 381 1737 m 23 Y s 339 1737 m 23 Y s 2117 1715 m 45 Y s 2159 1737 m 23 Y s 2201 1737 m 23 Y s 317
 216 m 1544 Y s 347 216 m -30 X s 347 236 m -30 X s 347 251 m -30 X s 347 263 m -30 X s 347 272 m -30 X s 347 280 m -30 X s 347 287 m -30 X s 347 293 m -30 X s 376 299 m -59 X s
 gsave  2268 1796 0 0 C 266.343 296.782 t 0 r /Helvetica findfont 57.0734 sf 0 0 m (2) show NC gr 
 gsave  2268 1796 0 0 C 235.903 296.782 t 0 r /Symbol findfont 57.0734 sf 0 0 m (-) show NC gr 
 gsave  2268 1796 0 0 C 144.586 262.538 t 0 r /Helvetica findfont 83.7077 sf 0 0 m (10) show NC gr  347 335 m -30 X s 347 355 m -30 X s 347 370 m -30 X s 347 382 m -30 X s 347 391 m -30 X s 347 399 m -30 X s 347 406 m -30 X s 347 412 m -30 X s 376
 418 m -59 X s
 gsave  2268 1796 0 0 C 273.952 414.733 t 0 r /Helvetica findfont 57.0734 sf 0 0 m (1) show NC gr 
 gsave  2268 1796 0 0 C 243.513 414.733 t 0 r /Symbol findfont 57.0734 sf 0 0 m (-) show NC gr 
 gsave  2268 1796 0 0 C 152.196 380.489 t 0 r /Helvetica findfont 83.7077 sf 0 0 m (10) show NC gr  347 454 m -30 X s 347 474 m -30 X s 347 489 m -30 X s 347 501 m -30 X s 347 510 m -30 X s 347 518 m -30 X s 347 525 m -30 X s 347 531 m -30 X s 376
 537 m -59 X s
 gsave  2268 1796 0 0 C 266.343 506.051 t 0 r /Helvetica findfont 83.7077 sf 0 0 m (1) show NC gr  347 573 m -30 X s 347 593 m -30 X s 347 608 m -30 X s 347 620 m -30 X s 347 629 m -30 X s 347 637 m -30 X s 347 644 m -30 X s 347 650 m -30 X s 376 656
 m -59 X s
 gsave  2268 1796 0 0 C 205.464 627.807 t 0 r /Helvetica findfont 83.7077 sf 0 0 m (10) show NC gr  347 692 m -30 X s 347 713 m -30 X s 347 727 m -30 X s 347 739 m -30 X s 347 748 m -30 X s 347 756 m -30 X s 347 763 m -30 X s 347 769 m -30 X s 376
 775 m -59 X s
 gsave  2268 1796 0 0 C 266.343 772.393 t 0 r /Helvetica findfont 57.0734 sf 0 0 m (2) show NC gr 
 gsave  2268 1796 0 0 C 175.025 738.149 t 0 r /Helvetica findfont 83.7077 sf 0 0 m (10) show NC gr  347 811 m -30 X s 347 832 m -30 X s 347 846 m -30 X s 347 858 m -30 X s 347 867 m -30 X s 347 875 m -30 X s 347 882 m -30 X s 347 888 m -30 X s 376
 894 m -59 X s
 gsave  2268 1796 0 0 C 266.343 894.15 t 0 r /Helvetica findfont 57.0734 sf 0 0 m (3) show NC gr 
 gsave  2268 1796 0 0 C 175.025 856.101 t 0 r /Helvetica findfont 83.7077 sf 0 0 m (10) show NC gr  347 930 m -30 X s 347 951 m -30 X s 347 965 m -30 X s 347 977 m -30 X s 347 986 m -30 X s 347 994 m -30 X s 347 1001 m -30 X s 347 1007 m -30 X s 376
 1013 m -59 X s
 gsave  2268 1796 0 0 C 266.343 1012.1 t 0 r /Helvetica findfont 57.0734 sf 0 0 m (4) show NC gr 
 gsave  2268 1796 0 0 C 175.025 977.858 t 0 r /Helvetica findfont 83.7077 sf 0 0 m (10) show NC gr  347 1049 m -30 X s 347 1070 m -30 X s 347 1084 m -30 X s 347 1096 m -30 X s 347 1105 m -30 X s 347 1113 m -30 X s 347 1120 m -30 X s 347 1126 m -30 X
 s 376 1132 m -59 X s
 gsave  2268 1796 0 0 C 266.343 1133.86 t 0 r /Helvetica findfont 57.0734 sf 0 0 m (5) show NC gr 
 gsave  2268 1796 0 0 C 175.025 1095.81 t 0 r /Helvetica findfont 83.7077 sf 0 0 m (10) show NC gr  347 1168 m -30 X s 347 1189 m -30 X s 347 1203 m -30 X s 347 1215 m -30 X s 347 1224 m -30 X s 347 1232 m -30 X s 347 1239 m -30 X s 347 1245 m -30 X
 s 376 1251 m -59 X s
 gsave  2268 1796 0 0 C 266.343 1251.81 t 0 r /Helvetica findfont 57.0734 sf 0 0 m (6) show NC gr 
 gsave  2268 1796 0 0 C 175.025 1213.76 t 0 r /Helvetica findfont 83.7077 sf 0 0 m (10) show NC gr  347 1287 m -30 X s 347 1308 m -30 X s 347 1322 m -30 X s 347 1334 m -30 X s 347 1343 m -30 X s 347 1351 m -30 X s 347 1358 m -30 X s 347 1364 m -30 X
 s 376 1370 m -59 X s
 gsave  2268 1796 0 0 C 266.343 1369.76 t 0 r /Helvetica findfont 57.0734 sf 0 0 m (7) show NC gr 
 gsave  2268 1796 0 0 C 175.025 1335.52 t 0 r /Helvetica findfont 83.7077 sf 0 0 m (10) show NC gr  347 1406 m -30 X s 347 1427 m -30 X s 347 1441 m -30 X s 347 1453 m -30 X s 347 1462 m -30 X s 347 1470 m -30 X s 347 1477 m -30 X s 347 1483 m -30 X
 s 376 1489 m -59 X s
 gsave  2268 1796 0 0 C 266.343 1491.52 t 0 r /Helvetica findfont 57.0734 sf 0 0 m (8) show NC gr 
 gsave  2268 1796 0 0 C 175.025 1453.47 t 0 r /Helvetica findfont 83.7077 sf 0 0 m (10) show NC gr  347 1525 m -30 X s 347 1546 m -30 X s 347 1560 m -30 X s 347 1572 m -30 X s 347 1581 m -30 X s 347 1589 m -30 X s 347 1596 m -30 X s 347 1602 m -30 X
 s 376 1608 m -59 X s
 gsave  2268 1796 0 0 C 266.343 1609.47 t 0 r /Helvetica findfont 57.0734 sf 0 0 m (9) show NC gr 
 gsave  2268 1796 0 0 C 175.025 1571.42 t 0 r /Helvetica findfont 83.7077 sf 0 0 m (10) show NC gr  347 1644 m -30 X s 347 1665 m -30 X s 347 1679 m -30 X s 347 1691 m -30 X s 347 1700 m -30 X s 347 1708 m -30 X s 347 1715 m -30 X s 347 1721 m -30 X
 s 376 1727 m -59 X s
 gsave  2268 1796 0 0 C 235.903 1727.42 t 0 r /Helvetica findfont 57.0734 sf 0 0 m (10) show NC gr 
 gsave  2268 1796 0 0 C 144.586 1689.37 t 0 r /Helvetica findfont 83.7077 sf 0 0 m (10) show NC gr  2222 216 m 1544 Y s 2193 216 m 29 X s 2193 236 m 29 X s 2193 251 m 29 X s 2193 263 m 29 X s 2193 272 m 29 X s 2193 280 m 29 X s 2193 287 m 29 X s 2193
 293 m 29 X s 2164 299 m 58 X s 2193 335 m 29 X s 2193 355 m 29 X s 2193 370 m 29 X s 2193 382 m 29 X s 2193 391 m 29 X s 2193 399 m 29 X s 2193 406 m 29 X s 2193 412 m 29 X s 2164 418 m 58 X s 2193 454 m 29 X s 2193 474 m 29 X s 2193 489 m 29 X s
 2193 501 m 29 X s 2193 510 m 29 X s 2193 518 m 29 X s 2193 525 m 29 X s 2193 531 m 29 X s 2164 537 m 58 X s 2193 573 m 29 X s 2193 593 m 29 X s 2193 608 m 29 X s 2193 620 m 29 X s 2193 629 m 29 X s 2193 637 m 29 X s 2193 644 m 29 X s 2193 650 m 29 X
 s 2164 656 m 58 X s 2193 692 m 29 X s 2193 713 m 29 X s 2193 727 m 29 X s 2193 739 m 29 X s 2193 748 m 29 X s 2193 756 m 29 X s 2193 763 m 29 X s 2193 769 m 29 X s 2164 775 m 58 X s 2193 811 m 29 X s 2193 832 m 29 X s 2193 846 m 29 X s 2193 858 m 29
 X s 2193 867 m 29 X s 2193 875 m 29 X s 2193 882 m 29 X s 2193 888 m 29 X s 2164 894 m 58 X s 2193 930 m 29 X s 2193 951 m 29 X s 2193 965 m 29 X s 2193 977 m 29 X s 2193 986 m 29 X s 2193 994 m 29 X s 2193 1001 m 29 X s 2193 1007 m 29 X s 2164 1013
 m 58 X s 2193 1049 m 29 X s 2193 1070 m 29 X s 2193 1084 m 29 X s 2193 1096 m 29 X s 2193 1105 m 29 X s 2193 1113 m 29 X s 2193 1120 m 29 X s 2193 1126 m 29 X s 2164 1132 m 58 X s 2193 1168 m 29 X s 2193 1189 m 29 X s 2193 1203 m 29 X s 2193 1215 m
 29 X s 2193 1224 m 29 X s 2193 1232 m 29 X s 2193 1239 m 29 X s 2193 1245 m 29 X s 2164 1251 m 58 X s 2193 1287 m 29 X s 2193 1308 m 29 X s 2193 1322 m 29 X s 2193 1334 m 29 X s 2193 1343 m 29 X s 2193 1351 m 29 X s 2193 1358 m 29 X s 2193 1364 m 29
 X s 2164 1370 m 58 X s 2193 1406 m 29 X s 2193 1427 m 29 X s 2193 1441 m 29 X s 2193 1453 m 29 X s 2193 1462 m 29 X s 2193 1470 m 29 X s 2193 1477 m 29 X s 2193 1483 m 29 X s 2164 1489 m 58 X s 2193 1525 m 29 X s 2193 1546 m 29 X s 2193 1560 m 29 X
 s 2193 1572 m 29 X s 2193 1581 m 29 X s 2193 1589 m 29 X s 2193 1596 m 29 X s 2193 1602 m 29 X s 2164 1608 m 58 X s 2193 1644 m 29 X s 2193 1665 m 29 X s 2193 1679 m 29 X s 2193 1691 m 29 X s 2193 1700 m 29 X s 2193 1708 m 29 X s 2193 1715 m 29 X s