user.dabattul.ntup_bkg_24022023.364708.Pythia8EvtGen_A14NNPDF23LO_jetjet_JZ8WithSW.e7142_s3681_r13167_p5511_TREE/user.dabattuluser.dabattul.32511609._000004.outputhh4b.root,
user.dabattul.ntup_bkg_24022023.364708.Pythia8EvtGen_A14NNPDF23LO_jetjet_JZ8WithSW.e7142_s3681_r13167_p5511_TREE/user.dabattuluser.dabattul.32511609._000003.outputhh4b.root,
user.dabattul.ntup_bkg_24022023.364708.Pythia8EvtGen_A14NNPDF23LO_jetjet_JZ8WithSW.e7142_s3681_r13167_p5511_TREE/user.dabattuluser.dabattul.32511609._000002.outputhh4b.root
