INFO : archiving source files
INFO : The build directory is /cvmfs/atlas.cern.ch/repo/sw/software/22.2/AnalysisBase/22.2.106/InstallArea
INFO : archiving source files
INFO : archiving InstallArea
INFO : gathering files under /afs/cern.ch/work/j/jcrosby/public/analysis/sh4b/grid/run.grid/./
INFO : checking sandbox
INFO : upload sandbox
INFO : submit user.jcrosby.20230418_mc_nosysts_mc20e.A14NNPDF23LO_XHS_X4000_S1000_4b.e8448_a899_r13145_p5511_TREE.801892.SH4b_r13145/
INFO : succeeded. new jediTaskID=33121880
