INFO : archiving source files
INFO : The build directory is /cvmfs/atlas.cern.ch/repo/sw/software/22.2/AnalysisBase/22.2.106/InstallArea
INFO : archiving source files
INFO : archiving InstallArea
INFO : gathering files under /afs/cern.ch/work/j/jcrosby/public/analysis/sh4b/grid/run.grid/./
INFO : checking sandbox
INFO : upload sandbox
INFO : submit user.jcrosby.20230418_mc_nosysts_mc20d.A14NNPDF23LO_XHS_X400_S200_4b.e8448_a899_r13144_p5511_TREE.801584.SH4b_r13144/
INFO : succeeded. new jediTaskID=33120591
